<?xml version="1.0" encoding="UTF-8"?>
<session version="1.0">
<refactoring comment="Delete resource &apos;Ranking&apos;" deleteContents="false" description="Delete resource &apos;Ranking&apos;" element1="/Ranking" flags="7" id="org.eclipse.ltk.core.refactoring.delete.resources" resources="1" stamp="1421169174145"/>
</session>